\relax 
\@writefile{toc}{\contentsline {section}{Problem 1}{2}}
\@writefile{lof}{\contentsline {figure}{\numberline {1}{\ignorespaces Generalized Measuring System }}{2}}
\newlabel{fig:multiple5}{{1}{2}}
\@writefile{toc}{\contentsline {section}{Problem 2}{3}}
\@writefile{lof}{\contentsline {figure}{\numberline {2}{\ignorespaces Table 1.5}}{3}}
\newlabel{fig:multiple1}{{2}{3}}
