\relax 
\@writefile{toc}{\contentsline {section}{Problem 1}{2}}
\@writefile{lof}{\contentsline {figure}{\numberline {1}{\ignorespaces Typical pressure transducer manufacturer’s specifications }}{2}}
\newlabel{fig:multiple5}{{1}{2}}
\@writefile{toc}{\contentsline {section}{Problem 2}{3}}
\@writefile{lof}{\contentsline {figure}{\numberline {2}{\ignorespaces }}{3}}
\newlabel{fig:multiple9}{{2}{3}}
\@writefile{toc}{\contentsline {section}{Problem 3}{4}}
\@writefile{toc}{\contentsline {section}{Problem 4}{5}}
\@writefile{lof}{\contentsline {figure}{\numberline {3}{\ignorespaces Table 1.5}}{5}}
\newlabel{fig:multiple10}{{3}{5}}
\@writefile{toc}{\contentsline {section}{Problem 5}{6}}
\@writefile{lof}{\contentsline {figure}{\numberline {4}{\ignorespaces Table 1.7}}{6}}
\newlabel{fig:multiple10}{{4}{6}}
\@writefile{toc}{\contentsline {section}{Problem 6}{7}}
\@writefile{lof}{\contentsline {figure}{\numberline {5}{\ignorespaces }}{7}}
\newlabel{fig:multiple10}{{5}{7}}
\@writefile{toc}{\contentsline {section}{Problem 7}{8}}
