\relax 
\providecommand \oddpage@label [2]{}
\@writefile{toc}{\contentsline {section}{Problem 1}{2}}
\@writefile{toc}{\contentsline {section}{Problem 2}{3}}
\@writefile{toc}{\contentsline {section}{Problem 3}{4}}
\@writefile{toc}{\contentsline {section}{Problem 4}{5}}
\@writefile{toc}{\contentsline {section}{Problem 5}{6}}
\@writefile{toc}{\contentsline {section}{Problem 6}{7}}
\@writefile{toc}{\contentsline {section}{Problem 7}{8}}
\@writefile{toc}{\contentsline {section}{Problem 8}{9}}
