\relax 
\providecommand \oddpage@label [2]{}
\@writefile{toc}{\contentsline {section}{Problem 1}{2}}
\@writefile{toc}{\contentsline {section}{Problem 2}{3}}
\@writefile{lol}{\contentsline {lstlisting}{Example\textunderscore 3\textunderscore 1.m}{3}}
