\relax 
\@writefile{toc}{\contentsline {section}{Problem 1}{2}}
\@writefile{lof}{\contentsline {figure}{\numberline {1}{\ignorespaces Generalized Measuring System }}{2}}
\newlabel{fig:multiple5}{{1}{2}}
\@writefile{toc}{\contentsline {subparagraph}{Working principle}{3}}
\@writefile{lof}{\contentsline {figure}{\numberline {2}{\ignorespaces Working principle of speedometer }}{3}}
\newlabel{fig:multiple6}{{2}{3}}
\@writefile{toc}{\contentsline {subparagraph}{Working principle}{4}}
\@writefile{lof}{\contentsline {figure}{\numberline {3}{\ignorespaces Working principle of Portable CD stereo system}}{4}}
\newlabel{fig:multiple7}{{3}{4}}
\@writefile{toc}{\contentsline {subparagraph}{Working principle}{5}}
\@writefile{lof}{\contentsline {figure}{\numberline {4}{\ignorespaces Working principle of Portable CD stereo system}}{5}}
\newlabel{fig:multiple8}{{4}{5}}
\@writefile{toc}{\contentsline {section}{Problem 2}{7}}
\@writefile{toc}{\contentsline {section}{Problem 3}{8}}
\@writefile{lof}{\contentsline {figure}{\numberline {5}{\ignorespaces The electrical signal to a spark plug in a car engine }}{8}}
\newlabel{fig:multiple9}{{5}{8}}
\@writefile{toc}{\contentsline {section}{Problem 4}{9}}
\@writefile{lof}{\contentsline {figure}{\numberline {6}{\ignorespaces Table 1.5}}{9}}
\newlabel{fig:multiple10}{{6}{9}}
